<?xml version="1.0" encoding="UTF-8" standalone="no"?>
<svg
   xmlns:dc="http://purl.org/dc/elements/1.1/"
   xmlns:cc="http://creativecommons.org/ns#"
   xmlns:rdf="http://www.w3.org/1999/02/22-rdf-syntax-ns#"
   xmlns:svg="http://www.w3.org/2000/svg"
   xmlns="http://www.w3.org/2000/svg"
   xmlns:sodipodi="http://sodipodi.sourceforge.net/DTD/sodipodi-0.dtd"
   xmlns:inkscape="http://www.inkscape.org/namespaces/inkscape"
   inkscape:version="1.1-dev (6039630, 2019-12-20)"
   sodipodi:docname="document-open-symbolic.svg"
   viewBox="0 0 16 16"
   height="16"
   width="16"
   id="svg1"
   version="1.1">
  <metadata
     id="metadata7074">
    <rdf:RDF>
      <cc:Work
         rdf:about="">
        <dc:format>image/svg+xml</dc:format>
        <dc:type
           rdf:resource="http://purl.org/dc/dcmitype/StillImage" />
      </cc:Work>
    </rdf:RDF>
  </metadata>
  <defs
     id="defs7072" />
  <style
     id="s0">
.base { fill:#000000; }
.success { fill:#009909; }
.warning { fill:#FF1990; }
.error { fill:#00AAFF; }
.dark { }
</style>
  <style
     id="s2">
@import '../../highlights.css';
</style>
  <sodipodi:namedview
     inkscape:document-rotation="0"
     inkscape:current-layer="svg1"
     inkscape:window-maximized="1"
     inkscape:window-y="-6"
     inkscape:window-x="65"
     inkscape:window-height="890"
     inkscape:window-width="1296"
     inkscape:cy="8"
     inkscape:cx="8"
     inkscape:zoom="41.125"
     showgrid="true"
     id="namedview"
     guidetolerance="10"
     gridtolerance="10"
     objecttolerance="10">
    <inkscape:grid
       id="grid"
       type="xygrid" />
  </sodipodi:namedview>
  <g
     inkscape:label="00375"
     id="document-open"
     transform="translate(-285.00211,-1131.3622)">
    <g
       inkscape:label="folder-open"
       id="g14298"
       transform="translate(24.0019,734.3622)">
      <path
         style="opacity:0;fill:none"
         d="m 261.00021,397 h 16 v 16 h -16 z"
         id="rect12206"
         inkscape:connector-curvature="0" />
      <path
         sodipodi:nodetypes="sssssccsccscccscscccs"
         style="opacity:1"
         d="m 261.572,398 c -0.2878,0 -0.57179,0.242 -0.57179,0.5312 v 12.9363 c 0,0.2984 0.27449,0.5312 0.57179,0.5312 h 13.7485 c 0.2972,0 0.5288,-0.2327 0.5288,-0.5312 l 1.1509,-5.9369 c 0,-0.2891 -0.241,-0.5312 -0.5288,-0.5312 h -11.4156 l -1.0265,4.4995 c 0,0.277 -0.222,0.5 -0.4977,0.5 -0.2757,0 -0.4963,-0.223 -0.4977,-0.5 L 263.0002,403 h 12 c 0,0 0.2366,-2 -0.4806,-2 h -7.5215 v -2.4686 c 0,-0.2891 -0.241,-0.5312 -0.5288,-0.5312 L 263.9981,398 h -1.9285 z"
         id="path12212"
         inkscape:connector-curvature="0" />
    </g>
  </g>
</svg>
