<?xml version="1.0" encoding="UTF-8" standalone="no"?>
<svg
   xmlns:dc="http://purl.org/dc/elements/1.1/"
   xmlns:cc="http://creativecommons.org/ns#"
   xmlns:rdf="http://www.w3.org/1999/02/22-rdf-syntax-ns#"
   xmlns:svg="http://www.w3.org/2000/svg"
   xmlns="http://www.w3.org/2000/svg"
   xmlns:sodipodi="http://sodipodi.sourceforge.net/DTD/sodipodi-0.dtd"
   xmlns:inkscape="http://www.inkscape.org/namespaces/inkscape"
   inkscape:version="1.1-dev (1fceb22, 2019-12-30)"
   sodipodi:docname="draw-star-outline-symbolic.svg"
   viewBox="0 0 16 16"
   height="16"
   width="16"
   id="svg1"
   version="1.1">
  <style
     id="s0">
.base { fill:#000000; }
.success { fill:#009909; }
.warning { fill:#FF1990; }
.error { fill:#00AAFF; }
.dark { }
</style>
  <style
     id="s2">
@import '../../highlights.css';
</style>
  <metadata
     id="metadata10">
    <rdf:RDF>
      <cc:Work
         rdf:about="">
        <dc:format>image/svg+xml</dc:format>
        <dc:type
           rdf:resource="http://purl.org/dc/dcmitype/StillImage" />
      </cc:Work>
    </rdf:RDF>
  </metadata>
  <defs
     id="defs8" />
  <sodipodi:namedview
     inkscape:document-rotation="0"
     inkscape:snap-global="false"
     inkscape:current-layer="svg1"
     inkscape:window-maximized="1"
     inkscape:window-y="-8"
     inkscape:window-x="54"
     inkscape:window-height="1177"
     inkscape:window-width="1858"
     inkscape:cy="7.3166036"
     inkscape:cx="9.3879532"
     inkscape:zoom="27.166187"
     showgrid="true"
     id="namedview"
     guidetolerance="10"
     gridtolerance="10"
     objecttolerance="10">
    <inkscape:grid
       id="grid"
       type="xygrid" />
  </sodipodi:namedview>
  <g
     inkscape:label="00174"
     id="draw-star-outline"
     transform="matrix(1.000006,0,0,1.002537,-348.99376,-684.09339)">
    <path
       style="opacity:0;fill:none"
       d="m 349,682.36218 h 15.97919 v 15.9375 H 349 Z"
       id="rect19962"
       inkscape:connector-curvature="0" />
    <path
       id="path822"
       transform="matrix(0.999994,0,0,0.99746942,348.99167,682.36224)"
       d="M 7.9609375 0 L 5.7460938 5.4824219 L 0.37695312 6.1855469 L 4.3945312 10.181641 L 3.3417969 16.054688 L 8.0449219 13.064453 L 12.785156 15.990234 L 12.669922 15.380859 L 11.658203 10.130859 L 15.625 6.078125 L 10.244141 5.4511719 L 7.9609375 0 z M 7.9726562 2.5019531 L 9.578125 6.328125 L 13.402344 6.7714844 L 10.580078 9.65625 L 11.376953 13.787109 L 8.0351562 11.724609 L 4.7207031 13.833984 L 5.4628906 9.6914062 L 2.6015625 6.8476562 L 6.421875 6.3496094 L 7.9726562 2.5019531 z "
       style="opacity:1;stroke-width:0.98073399" />
  </g>
</svg>
