<?xml version="1.0" encoding="UTF-8" standalone="no"?>
<svg
   xmlns:dc="http://purl.org/dc/elements/1.1/"
   xmlns:cc="http://creativecommons.org/ns#"
   xmlns:rdf="http://www.w3.org/1999/02/22-rdf-syntax-ns#"
   xmlns:svg="http://www.w3.org/2000/svg"
   xmlns="http://www.w3.org/2000/svg"
   xmlns:sodipodi="http://sodipodi.sourceforge.net/DTD/sodipodi-0.dtd"
   xmlns:inkscape="http://www.inkscape.org/namespaces/inkscape"
   version="1.1"
   id="svg1"
   width="16"
   height="16"
   viewBox="0 0 16 16"
   sodipodi:docname="draw-use-pressure-symbolic.svg"
   inkscape:version="1.1-dev (1fceb22, 2019-12-30)">
  <style
     id="s0">.base { fill:#000000; }
.success { fill:#009909; }
.warning { fill:#FF1990; }
.error { fill:#00AAFF; }
.dark {  }
</style>
  <style
     id="s2">
@import '../../highlights.css';
</style>
  <metadata
     id="metadata2248">
    <rdf:RDF>
      <cc:Work
         rdf:about="">
        <dc:format>image/svg+xml</dc:format>
        <dc:type
           rdf:resource="http://purl.org/dc/dcmitype/StillImage" />
      </cc:Work>
    </rdf:RDF>
  </metadata>
  <defs
     id="defs2246" />
  <sodipodi:namedview
     objecttolerance="10"
     gridtolerance="10"
     guidetolerance="10"
     id="namedview"
     showgrid="true"
     inkscape:zoom="31.5625"
     inkscape:cx="7.8026854"
     inkscape:cy="6.9479221"
     inkscape:window-width="1858"
     inkscape:window-height="1177"
     inkscape:window-x="54"
     inkscape:window-y="-8"
     inkscape:window-maximized="1"
     inkscape:current-layer="svg1"
     inkscape:document-rotation="0">
    <inkscape:grid
       type="xygrid"
       id="grid" />
  </sodipodi:namedview>
  <g
     transform="matrix(0.999657,0,0,1,-378.86988,-805.3625)"
     inkscape:label="00177"
     id="draw-use-pressure">
    <g
       id="g6258"
       transform="matrix(1.369323,0,0,1.456319,-567.92,362.9858)">
      <path
         inkscape:connector-curvature="0"
         id="use_pressure"
         d="m 691.52399,303.7634 h 11.684 v 10.9571 h -11.684 z"
         style="opacity:0;fill:none" />
      <path
         sodipodi:nodetypes="ccccc"
         inkscape:connector-curvature="0"
         style="opacity:1"
         d="m 691.5341,314.75 11.6782,-0.016 3e-4,-4.79044 c -0.97874,3.43332 -5.8423,4.11984 -11.6846,4.11984 z"
         id="path7145" />
    </g>
    <path
       class="error"
       inkscape:connector-curvature="0"
       id="path20147"
       d="m 386,807.3622 h 2 v 6 h 3 l -4,4 -4,-3.9981 h 3 z"
       style="opacity:1" />
  </g>
</svg>
