<?xml version="1.0" encoding="UTF-8" standalone="no"?>
<svg
   xmlns:dc="http://purl.org/dc/elements/1.1/"
   xmlns:cc="http://creativecommons.org/ns#"
   xmlns:rdf="http://www.w3.org/1999/02/22-rdf-syntax-ns#"
   xmlns:svg="http://www.w3.org/2000/svg"
   xmlns="http://www.w3.org/2000/svg"
   xmlns:sodipodi="http://sodipodi.sourceforge.net/DTD/sodipodi-0.dtd"
   xmlns:inkscape="http://www.inkscape.org/namespaces/inkscape"
   inkscape:version="1.0beta2 (7cf281c, 2019-12-21)"
   sodipodi:docname="mesh-gradient-fit-symbolic.svg"
   version="1.1"
   height="20"
   width="20"
   id="svg1">
  <style
     id="s0">
.base { fill:#000000; }
.success { fill:#009909; }
.warning { fill:#FF1990; }
.error { fill:#00AAFF; }
.dark { }
</style>
  <style
     id="s2">
@import '../../highlights.css';
</style>
  <metadata
     id="metadata9">
    <rdf:RDF>
      <cc:Work
         rdf:about="">
        <dc:format>image/svg+xml</dc:format>
        <dc:type
           rdf:resource="http://purl.org/dc/dcmitype/StillImage" />
      </cc:Work>
    </rdf:RDF>
  </metadata>
  <sodipodi:namedview
     inkscape:document-rotation="0"
     inkscape:current-layer="svg1"
     inkscape:window-maximized="1"
     inkscape:window-y="-6"
     inkscape:window-x="65"
     inkscape:window-height="890"
     inkscape:window-width="1296"
     inkscape:cy="9.661017"
     inkscape:cx="-9.745763"
     inkscape:zoom="11.8"
     showgrid="true"
     id="base">
    <inkscape:grid
       empspacing="5"
       empopacity="0.38"
       opacity="0.15"
       empcolor="#3f3fff"
       color="#3f3fff"
       spacingy="1pt"
       spacingx="1pt"
       originy="0pt"
       originx="0pt"
       type="xygrid"
       id="GridFromPre046Settings" />
  </sodipodi:namedview>
  <defs
     id="defs3" />
  <g
     transform="translate(-1155,-347)"
     inkscape:label="#mesh-gradient-fit"
     id="mesh-gradient-fit">
    <path
       id="path4"
       style="stroke:none;opacity:0.3738095"
       d="m 1172,350 c 6,6 -4,10 0,14 -6,6 -10,-4 -14,0 -6,-6 4,-10 0,-14 6,-6 10,4 14,0 z" />
    <rect
       y="347.5"
       x="1155.5"
       width="19"
       style="fill:none;stroke:#000000;stroke-linejoin:round"
       id="outline"
       height="19" />
  </g>
</svg>
