<?xml version="1.0" encoding="UTF-8" standalone="no"?>
<svg
   xmlns:dc="http://purl.org/dc/elements/1.1/"
   xmlns:cc="http://creativecommons.org/ns#"
   xmlns:rdf="http://www.w3.org/1999/02/22-rdf-syntax-ns#"
   xmlns:svg="http://www.w3.org/2000/svg"
   xmlns="http://www.w3.org/2000/svg"
   xmlns:xlink="http://www.w3.org/1999/xlink"
   xmlns:sodipodi="http://sodipodi.sourceforge.net/DTD/sodipodi-0.dtd"
   xmlns:inkscape="http://www.inkscape.org/namespaces/inkscape"
   inkscape:version="1.0beta2 (7cf281c, 2019-12-21)"
   sodipodi:docname="object-tweak-attract-symbolic.svg"
   viewBox="0 0 16 16"
   height="16"
   width="16"
   id="svg1"
   version="1.1">
  <metadata
     id="metadata4284">
    <rdf:RDF>
      <cc:Work
         rdf:about="">
        <dc:format>image/svg+xml</dc:format>
        <dc:type
           rdf:resource="http://purl.org/dc/dcmitype/StillImage" />
      </cc:Work>
    </rdf:RDF>
  </metadata>
  <defs
     id="defs4282" />
  <style
     id="s0">
.base { fill:#000000; }
.success { fill:#009909; }
.warning { fill:#FF1990; }
.error { fill:#00AAFF; }
.dark { }
</style>
  <style
     id="s2">
@import '../../highlights.css';
</style>
  <sodipodi:namedview
     inkscape:document-rotation="0"
     inkscape:current-layer="svg1"
     inkscape:window-maximized="1"
     inkscape:window-y="-6"
     inkscape:window-x="65"
     inkscape:window-height="890"
     inkscape:window-width="1296"
     inkscape:cy="8"
     inkscape:cx="8"
     inkscape:zoom="41.125"
     showgrid="true"
     id="namedview"
     guidetolerance="10"
     gridtolerance="10"
     objecttolerance="10">
    <inkscape:grid
       id="grid"
       type="xygrid" />
  </sodipodi:namedview>
  <g
     inkscape:label="00115"
     id="object-tweak-attract"
     transform="translate(-255,-707.36218)">
    <path
       style="opacity:0;fill:none"
       d="m 255,707.36218 h 16 v 16 h -16 z"
       id="rect16104"
       inkscape:connector-curvature="0" />
    <g
       transform="translate(-116.8231,570.8367)"
       id="g6152">
      <use
         height="1250"
         width="1250"
         id="use5124"
         transform="translate(8.861385,11.02164)"
         inkscape:tiled-clone-of="#path5011"
         y="0"
         x="0"
         xlink:href="#path5084" />
      <use
         x="0"
         y="0"
         inkscape:tiled-clone-of="#path5011"
         transform="translate(2.953795,11.09914)"
         id="use5130"
         width="1250"
         height="1250"
         xlink:href="#path5084" />
      <use
         height="1250"
         width="1250"
         id="use5088"
         transform="translate(11.11579,3.027365)"
         inkscape:tiled-clone-of="#path5011"
         y="0"
         x="0"
         xlink:href="#path5084" />
      <use
         x="0"
         y="0"
         inkscape:tiled-clone-of="#path5011"
         transform="translate(11.0383,9.082095)"
         id="use5126"
         width="1250"
         height="1250"
         xlink:href="#path5084" />
      <use
         height="1250"
         width="1250"
         id="use5090"
         transform="translate(10.38143,6.05473)"
         inkscape:tiled-clone-of="#path5011"
         y="0"
         x="0"
         xlink:href="#path5084" />
      <use
         x="0"
         y="0"
         inkscape:tiled-clone-of="#path5011"
         transform="translate(5.90759,10.40446)"
         id="use5132"
         width="1250"
         height="1250"
         xlink:href="#path5084" />
      <path
         transform="matrix(1.20571,0,0,1.20571,-78.25832,-27.88514)"
         d="m 376.20595,137.9821 a 1.111868,1.111868 0 0 1 -1.11186,1.11187 1.111868,1.111868 0 0 1 -1.11187,-1.11187 1.111868,1.111868 0 0 1 1.11187,-1.11187 1.111868,1.111868 0 0 1 1.11186,1.11187 z"
         id="path5084"
         inkscape:connector-curvature="0" />
      <use
         height="1250"
         width="1250"
         id="use5086"
         inkscape:tiled-clone-of="#path5011"
         y="0"
         x="0"
         transform="translate(8.706381,0.9318868)"
         xlink:href="#path5084" />
      <use
         height="1250"
         width="1250"
         id="use5092"
         transform="translate(2.953795,0.8543842)"
         inkscape:tiled-clone-of="#path5011"
         y="0"
         x="0"
         xlink:href="#path5084" />
      <use
         height="1250"
         width="1250"
         id="use5094"
         transform="translate(11.81518)"
         inkscape:tiled-clone-of="#path5011"
         y="0"
         x="0"
         xlink:href="#path5084" />
      <use
         height="1250"
         width="1250"
         id="use5096"
         transform="translate(1.317544,6.05473)"
         inkscape:tiled-clone-of="#path5011"
         y="0"
         x="0"
         xlink:href="#path5084" />
      <use
         height="1250"
         width="1250"
         id="use5098"
         transform="translate(0.7764177,9.082095)"
         inkscape:tiled-clone-of="#path5011"
         y="0"
         x="0"
         xlink:href="#path5084" />
      <use
         height="1250"
         width="1250"
         id="use5100"
         transform="translate(5.90759,1.588803)"
         inkscape:tiled-clone-of="#path5011"
         y="0"
         x="0"
         xlink:href="#path5084" />
      <use
         height="1250"
         width="1250"
         id="use5103"
         transform="translate(0.6601638,3.027365)"
         inkscape:tiled-clone-of="#path5011"
         y="0"
         x="0"
         xlink:href="#path5084" />
      <use
         height="1250"
         width="1250"
         id="use5106"
         transform="translate(3.225052,3.298622)"
         inkscape:tiled-clone-of="#path5011"
         y="0"
         x="0"
         xlink:href="#path5084" />
      <use
         height="1250"
         width="1250"
         id="use5108"
         transform="translate(3.147551,8.733335)"
         inkscape:tiled-clone-of="#path5011"
         y="0"
         x="0"
         xlink:href="#path5084" />
      <use
         height="1250"
         width="1250"
         id="use5110"
         transform="translate(5.90759,4.189904)"
         inkscape:tiled-clone-of="#path5011"
         y="0"
         x="0"
         xlink:href="#path5084" />
      <use
         height="1250"
         width="1250"
         id="use5112"
         transform="translate(8.706381,3.376124)"
         inkscape:tiled-clone-of="#path5011"
         y="0"
         x="0"
         xlink:href="#path5084" />
      <use
         height="1250"
         width="1250"
         id="use5114"
         transform="translate(3.961329,6.05473)"
         inkscape:tiled-clone-of="#path5011"
         y="0"
         x="0"
         xlink:href="#path5084" />
      <use
         height="1250"
         width="1250"
         id="use5116"
         transform="translate(5.90759,7.764549)"
         inkscape:tiled-clone-of="#path5011"
         y="0"
         x="0"
         xlink:href="#path5084" />
      <use
         height="1250"
         width="1250"
         id="use5120"
         transform="translate(7.698848,6.05473)"
         inkscape:tiled-clone-of="#path5011"
         y="0"
         x="0"
         xlink:href="#path5084" />
      <use
         height="1250"
         width="1250"
         id="use5122"
         transform="translate(8.628879,8.772087)"
         inkscape:tiled-clone-of="#path5011"
         y="0"
         x="0"
         xlink:href="#path5084" />
      <use
         x="0"
         y="0"
         inkscape:tiled-clone-of="#path5011"
         transform="translate(0,12.10946)"
         id="use5128"
         width="1250"
         height="1250"
         xlink:href="#path5084" />
      <use
         x="0"
         y="0"
         inkscape:tiled-clone-of="#path5011"
         transform="translate(11.81518,12.10946)"
         id="use5134"
         width="1250"
         height="1250"
         xlink:href="#path5084" />
    </g>
  </g>
</svg>
