<?xml version="1.0" encoding="UTF-8" standalone="no"?>
<svg
   xmlns:dc="http://purl.org/dc/elements/1.1/"
   xmlns:cc="http://creativecommons.org/ns#"
   xmlns:rdf="http://www.w3.org/1999/02/22-rdf-syntax-ns#"
   xmlns:svg="http://www.w3.org/2000/svg"
   xmlns="http://www.w3.org/2000/svg"
   xmlns:sodipodi="http://sodipodi.sourceforge.net/DTD/sodipodi-0.dtd"
   xmlns:inkscape="http://www.inkscape.org/namespaces/inkscape"
   inkscape:version="1.0beta0 (1d85f8e, 2019-09-11)"
   sodipodi:docname="snap-nodes-smooth-symbolic.svg"
   viewBox="0 0 16 16"
   height="16"
   width="16"
   id="svg1"
   version="1.1">
<style id="s0">
   .base    { fill: #000000; }
   .success { fill: #009909; }
   .warning { fill: #FF1990; }
   .error   { fill: #00AAFF; }
   .dark    {  }
  </style>
  <style id="s2"> 
     @import '../../highlights.css'; 
  </style>
   
  <metadata
     id="metadata3102">
    <rdf:RDF>
      <cc:Work
         rdf:about="">
        <dc:format>image/svg+xml</dc:format>
        <dc:type
           rdf:resource="http://purl.org/dc/dcmitype/StillImage" />
      </cc:Work>
    </rdf:RDF>
  </metadata>
  <defs
     id="defs3100" />
  <sodipodi:namedview
     inkscape:snap-smooth-nodes="true"
     inkscape:snap-to-guides="false"
     inkscape:snap-grids="false"
     inkscape:document-rotation="0"
     inkscape:current-layer="snap-nodes-smooth"
     inkscape:window-maximized="1"
     inkscape:window-y="-8"
     inkscape:window-x="54"
     inkscape:window-height="1177"
     inkscape:window-width="1858"
     inkscape:cy="8.4457089"
     inkscape:cx="3.3516639"
     inkscape:zoom="27.166187"
     showgrid="true"
     id="namedview"
     guidetolerance="10"
     gridtolerance="10"
     objecttolerance="10">
    <inkscape:grid
       id="grid"
       type="xygrid" />
  </sodipodi:namedview>
  <g
     inkscape:label="00328"
     id="snap-nodes-smooth"
     transform="matrix(0.998641,0,0,0.999601,-827.85172,-506.16007)">
    <path
       style="opacity:0;fill:none"
       d="m 829,506.36221 h 16 v 16 h -16 z"
       id="rect22719"
       inkscape:connector-curvature="0" />
    <path
       style="opacity:1"
       d="m 844.3125,522.3622 a 0.5140439,0.5121131 0 0 1 -0.4063,-0.5938 c 0.2334,-1.5961 -0.061,-3.723 -1.125,-5.4062 -0.6325,-1.0004 -1.5307,-1.8452 -2.7812,-2.375 v -1.125 c 1.6552,0.5943 2.8607,1.6793 3.6562,2.9375 1.2267,1.9399 1.518,4.2611 1.25,6.0937 a 0.5140439,0.5121131 0 0 1 -0.5937,0.4688 z m -14.7188,-0.125 a 0.5240784,0.52211 0 0 1 -0.5,-0.4375 c -0.2977,-1.8271 -0.053,-4.1494 1.125,-6.0625 0.7918,-1.286 2.0393,-2.37 3.7813,-2.9375 v 1.0625 c -1.3469,0.5015 -2.2728,1.3775 -2.9063,2.4062 -1.0134,1.646 -1.2297,3.7421 -0.9687,5.3438 a 0.5240784,0.52211 0 0 1 -0.5313,0.625 z"
       id="path22717"
       inkscape:connector-curvature="0" />
    <path
       class="success"
       transform="matrix(0.8,0,0,0.8,167.8,511.9622)"
       style="opacity:1"
       d="M 839,0.5 A 2.5,2.5 0 0 1 836.5,3 2.5,2.5 0 0 1 834,0.5 2.5,2.5 0 0 1 836.5,-2 2.5,2.5 0 0 1 839,0.5 Z"
       id="path22731"
       inkscape:connector-curvature="0" />
  </g>
</svg>
