<?xml version="1.0" encoding="UTF-8" standalone="no"?>
<svg
   xmlns:dc="http://purl.org/dc/elements/1.1/"
   xmlns:cc="http://creativecommons.org/ns#"
   xmlns:rdf="http://www.w3.org/1999/02/22-rdf-syntax-ns#"
   xmlns:svg="http://www.w3.org/2000/svg"
   xmlns="http://www.w3.org/2000/svg"
   xmlns:sodipodi="http://sodipodi.sourceforge.net/DTD/sodipodi-0.dtd"
   xmlns:inkscape="http://www.inkscape.org/namespaces/inkscape"
   inkscape:version="1.1-dev (1fceb22, 2019-12-30)"
   sodipodi:docname="stroke-join-bevel-symbolic.svg"
   viewBox="0 0 16 16"
   height="16"
   width="16"
   id="svg1"
   version="1.1">
  <metadata
     id="metadata16904">
    <rdf:RDF>
      <cc:Work
         rdf:about="">
        <dc:format>image/svg+xml</dc:format>
        <dc:type
           rdf:resource="http://purl.org/dc/dcmitype/StillImage" />
      </cc:Work>
    </rdf:RDF>
  </metadata>
  <defs
     id="defs16902" />
  <style
     id="s0">
.base { fill:#000000; }
.success { fill:#009909; }
.warning { fill:#FF1990; }
.error { fill:#00AAFF; }
.dark { }
</style>
  <style
     id="s2">
@import '../../highlights.css';
</style>
  <sodipodi:namedview
     inkscape:document-rotation="0"
     inkscape:current-layer="svg1"
     inkscape:window-maximized="1"
     inkscape:window-y="-8"
     inkscape:window-x="54"
     inkscape:window-height="1177"
     inkscape:window-width="1858"
     inkscape:cy="8"
     inkscape:cx="8"
     inkscape:zoom="60.1875"
     showgrid="true"
     id="namedview"
     guidetolerance="10"
     gridtolerance="10"
     objecttolerance="10">
    <inkscape:grid
       id="grid"
       type="xygrid" />
  </sodipodi:namedview>
  <g
     id="stroke-join-bevel"
     inkscape:label="00313"
     transform="matrix(0.666667,0,0,0.666666,-696,-664.90757)">
    <path
       style="opacity:0;fill:none"
       d="m 1044,997.36218 h 24 v 24.00002 h -24 z"
       id="rect24338"
       inkscape:connector-curvature="0" />
    <path
       style="opacity:1"
       d="m 1052.25,998.4798 -6.25,7.7232 v 13.159 h 5 v -16 h 2.438 1.562 12 v -4.8822 z m 2.75,8.8822 v 12 h 5 v -7 h 7 v -5 z"
       id="path24340"
       inkscape:connector-curvature="0" />
    <path
       style="opacity:1"
       d="m 1055,1004.362 h 2 v 2 h -2 z"
       id="rect24342"
       inkscape:connector-curvature="0" />
    <path
       style="opacity:1"
       d="m 1061,1004.362 h 2 v 2 h -2 z"
       id="rect24344"
       inkscape:connector-curvature="0" />
    <path
       style="opacity:1"
       d="m 1058,1004.362 h 2 v 2 h -2 z"
       id="rect24491"
       inkscape:connector-curvature="0" />
    <path
       style="opacity:1"
       d="m 1052,1004.362 h 2 v 2 h -2 z"
       id="rect24493"
       inkscape:connector-curvature="0" />
    <path
       style="opacity:1"
       d="m 1064,1004.362 h 2 v 2 h -2 z"
       id="rect24495"
       inkscape:connector-curvature="0" />
    <path
       style="opacity:1"
       d="m 1052,1007.362 h 2 v 2 h -2 z"
       id="rect24497"
       inkscape:connector-curvature="0" />
    <path
       style="opacity:1"
       d="m 1052,1010.362 h 2 v 2 h -2 z"
       id="rect24499"
       inkscape:connector-curvature="0" />
    <path
       style="opacity:1"
       d="m 1052,1013.362 h 2 v 2 h -2 z"
       id="rect24501"
       inkscape:connector-curvature="0" />
    <path
       style="opacity:1"
       d="m 1052,1016.362 h 2 v 2 h -2 z"
       id="rect24503"
       inkscape:connector-curvature="0" />
  </g>
</svg>
