<?xml version="1.0" encoding="UTF-8" standalone="no"?>
<svg
   xmlns:dc="http://purl.org/dc/elements/1.1/"
   xmlns:cc="http://creativecommons.org/ns#"
   xmlns:rdf="http://www.w3.org/1999/02/22-rdf-syntax-ns#"
   xmlns:svg="http://www.w3.org/2000/svg"
   xmlns="http://www.w3.org/2000/svg"
   xmlns:sodipodi="http://sodipodi.sourceforge.net/DTD/sodipodi-0.dtd"
   xmlns:inkscape="http://www.inkscape.org/namespaces/inkscape"
   inkscape:version="1.1-dev (6039630, 2019-12-20)"
   sodipodi:docname="text_superscript-symbolic.svg"
   viewBox="0 0 16 16"
   height="16"
   width="16"
   id="svg1"
   version="1.1">
  <metadata
     id="metadata6116">
    <rdf:RDF>
      <cc:Work
         rdf:about="">
        <dc:format>image/svg+xml</dc:format>
        <dc:type
           rdf:resource="http://purl.org/dc/dcmitype/StillImage" />
      </cc:Work>
    </rdf:RDF>
  </metadata>
  <defs
     id="defs6114" />
  <style
     id="s0">
.base { fill:#000000; }
.success { fill:#009909; }
.warning { fill:#FF1990; }
.error { fill:#00AAFF; }
.dark { }
</style>
  <style
     id="s2">
@import '../../highlights.css';
</style>
  <sodipodi:namedview
     inkscape:document-rotation="0"
     inkscape:current-layer="svg1"
     inkscape:window-maximized="1"
     inkscape:window-y="-6"
     inkscape:window-x="65"
     inkscape:window-height="890"
     inkscape:window-width="1296"
     inkscape:cy="8"
     inkscape:cx="8"
     inkscape:zoom="41.125"
     showgrid="true"
     id="namedview"
     guidetolerance="10"
     gridtolerance="10"
     objecttolerance="10">
    <inkscape:grid
       id="grid"
       type="xygrid" />
  </sodipodi:namedview>
  <g
     inkscape:label="00186"
     id="text_superscript"
     transform="translate(-559,-836.36218)">
    <path
       style="opacity:0;fill:none"
       d="m 559,836.36218 h 16 v 16 h -16 z"
       id="rect15829"
       inkscape:connector-curvature="0" />
    <path
       id="path15841"
       d="m 559,841.3622 2.6875,3.5 -2.6875,3.5 h 2.6562 l 1.3438,-1.75 1.3437,1.75 H 567 l -2.6875,-3.5 2.6875,-3.5 h -2.6563 l -1.3437,1.75 -1.3438,-1.75 z"
       style="opacity:0.5"
       inkscape:connector-curvature="0" />
    <path
       id="path15851"
       d="m 565.9062,837.3622 3.2188,4.8125 -2.125,3.1875 h 2.6562 l 5.3438,-8 h -2.6563 l -1.9062,2.8437 -1.875,-2.8437 z"
       style="opacity:1"
       inkscape:connector-curvature="0" />
  </g>
</svg>
