<?xml version="1.0" encoding="UTF-8" standalone="no"?>
<svg
   xmlns:dc="http://purl.org/dc/elements/1.1/"
   xmlns:cc="http://creativecommons.org/ns#"
   xmlns:rdf="http://www.w3.org/1999/02/22-rdf-syntax-ns#"
   xmlns:svg="http://www.w3.org/2000/svg"
   xmlns="http://www.w3.org/2000/svg"
   xmlns:sodipodi="http://sodipodi.sourceforge.net/DTD/sodipodi-0.dtd"
   xmlns:inkscape="http://www.inkscape.org/namespaces/inkscape"
   width="16"
   height="16"
   viewBox="0 0 4.2333332 4.2333335"
   version="1.1"
   id="svg8"
   inkscape:version="1.1-dev (1fceb22, 2019-12-30)"
   sodipodi:docname="zoom-center-page-symbolic.svg">
  <style
     id="s0">
.base { fill:#000000; }
.success { fill:#009909; }
.warning { fill:#FF1990; }
.error { fill:#00AAFF; }
.dark { }
</style>
  <style
     id="s2">
@import '../../highlights.css';
</style>
  <defs
     id="defs2">
    <inkscape:path-effect
       split_items="false"
       mirror_copies="false"
       copies_to_360="true"
       gap="0.05"
       rotation_angle="90"
       starting_angle="-0.33976466"
       num_copies="4"
       method="normal"
       lpeversion="1"
       is_visible="true"
       id="path-effect10438"
       origin="2.2586589,294.74748"
       starting_point="3.1827546,294.73532"
       effect="copy_rotate" />
    <inkscape:path-effect
       effect="join_type"
       id="path-effect957"
       is_visible="true"
       lpeversion="1"
       linecap_type="butt"
       line_width="0.26458299"
       linejoin_type="extrp_arc"
       miter_limit="100"
       attempt_force_join="true" />
    <inkscape:path-effect
       effect="join_type"
       id="path-effect945"
       is_visible="true"
       lpeversion="1"
       linecap_type="butt"
       line_width="0"
       linejoin_type="extrp_arc"
       miter_limit="100"
       attempt_force_join="true" />
  </defs>
  <sodipodi:namedview
     id="base"
     pagecolor="#ffffff"
     bordercolor="#666666"
     borderopacity="1.0"
     inkscape:pageopacity="0.0"
     inkscape:pageshadow="2"
     inkscape:zoom="44.8"
     inkscape:cx="5.813508"
     inkscape:cy="9.7214217"
     inkscape:document-units="mm"
     inkscape:current-layer="layer1"
     showgrid="true"
     units="px"
     inkscape:window-width="1858"
     inkscape:window-height="1177"
     inkscape:window-x="54"
     inkscape:window-y="-8"
     inkscape:window-maximized="1"
     inkscape:document-rotation="0"
     inkscape:snap-global="true">
    <inkscape:grid
       type="xygrid"
       id="grid947" />
  </sodipodi:namedview>
  <metadata
     id="metadata5">
    <rdf:RDF>
      <cc:Work
         rdf:about="">
        <dc:format>image/svg+xml</dc:format>
        <dc:type
           rdf:resource="http://purl.org/dc/dcmitype/StillImage" />
        <dc:title />
      </cc:Work>
    </rdf:RDF>
  </metadata>
  <g
     inkscape:label="Layer 1"
     inkscape:groupmode="layer"
     id="layer1"
     transform="translate(0,-292.76665)">
    <path
       sodipodi:nodetypes="cccccccccc"
       inkscape:connector-curvature="0"
       id="path10466"
       d="m 0.79466146,293.29582 v 2.91041 H 3.7048177 v -2.91041 z m 0.26367184,0.26367 h 2.3808594 v 2.38111 H 1.0583333 Z"
       style="color:#000000;font-style:normal;font-variant:normal;font-weight:normal;font-stretch:normal;font-size:medium;line-height:normal;font-family:sans-serif;font-variant-ligatures:normal;font-variant-position:normal;font-variant-caps:normal;font-variant-numeric:normal;font-variant-alternates:normal;font-variant-east-asian:normal;font-feature-settings:normal;font-variation-settings:normal;text-indent:0;text-align:start;text-decoration:none;text-decoration-line:none;text-decoration-style:solid;text-decoration-color:#000000;letter-spacing:normal;word-spacing:normal;text-transform:none;writing-mode:lr-tb;direction:ltr;text-orientation:mixed;dominant-baseline:auto;baseline-shift:baseline;text-anchor:start;white-space:normal;shape-padding:0;shape-margin:0;inline-size:0;clip-rule:nonzero;display:inline;overflow:visible;visibility:visible;opacity:1;isolation:auto;mix-blend-mode:normal;color-interpolation:sRGB;color-interpolation-filters:linearRGB;solid-color:#000000;solid-opacity:1;vector-effect:none;fill:#040404;fill-opacity:1;fill-rule:nonzero;stroke:none;stroke-width:0.264583;stroke-linecap:butt;stroke-linejoin:miter;stroke-miterlimit:4;stroke-dasharray:none;stroke-dashoffset:0;stroke-opacity:1;paint-order:normal;color-rendering:auto;image-rendering:auto;shape-rendering:auto;text-rendering:auto;enable-background:accumulate;stop-color:#000000;stop-opacity:1" />
    <g
       transform="translate(0.10040005,-0.1216577)"
       id="g10412">
      <rect
         style="fill:#000000;stroke:none;stroke-width:0.529167;paint-order:markers fill stroke"
         id="rect10393"
         width="1.3229166"
         height="0.26458332"
         x="1.4870999"
         y="294.74039" />
      <rect
         transform="rotate(90)"
         y="-2.2808499"
         x="294.21124"
         height="0.26458332"
         width="1.3229166"
         id="rect10393-3"
         style="fill:#000000;stroke:none;stroke-width:0.529167;paint-order:markers fill stroke" />
    </g>
    <g
       style="opacity:0.5"
       inkscape:path-effect="#path-effect10438"
       id="g10436">
      <g
         style="stroke:none;stroke-width:0.9148"
         transform="matrix(0.02079208,0,0,0.01740004,0.36250035,291.94311)"
         id="g849">
        <path
           sodipodi:type="rect"
           d="m 46.922704,-34.032206 15.205634,0.07546 -0.270512,38.1749229 -15.205634,-0.07546 z M 229.4781,4.4129552 l 0.0902,-12.7249721 45.61691,0.2263804 -0.0902,12.7249721 z m 45.93983,-152.7731352 -15.20563,-0.0755 0.27051,-38.17492 15.20564,0.0755 z m -182.555396,-38.44516 -0.09017,12.72497 -45.616909,-0.22638 0.09017,-12.72497 z"
           transform="rotate(90)"
           style="opacity:1;fill:#000000;fill-opacity:1;stroke:none;stroke-width:1.7061;stroke-miterlimit:4;stroke-dasharray:none;stroke-dashoffset:0;stroke-opacity:1;paint-order:normal"
           id="rect847"
           width="15.205901"
           height="38.175594"
           x="47.329777"
           y="-33.466251" />
      </g>
      <g
         id="g849-0"
         transform="matrix(0,0.01740004,-0.01740004,0,1.3527067,293.3346)"
         style="stroke:none">
        <path
           sodipodi:type="rect"
           d="m 46.923469,-12.388766 15.205634,0.09017 -0.22638,38.174923 -15.205634,-0.09017 z m -30.178521,-167.800614 0.09017,-15.20564 38.174923,0.22639 -0.09017,15.20563 z m -167.800618,30.17852 -15.20563,-0.0902 0.22638,-38.17492 15.20563,0.0902 z m 30.17852,167.800615 -0.0902,15.205633 -38.17492,-0.22638 0.0902,-15.205634 z"
           y="-12.976982"
           x="47.329777"
           height="38.175594"
           width="15.205901"
           id="rect847-7"
           style="opacity:1;fill:#000000;fill-opacity:1;stroke:none;stroke-width:1.865;stroke-miterlimit:4;stroke-dasharray:none;stroke-dashoffset:0;stroke-opacity:1;paint-order:normal"
           transform="rotate(90)" />
      </g>
    </g>
  </g>
  <path
     d="M 15.559445,1.9999999 14.960894,1.6853226 14.362342,1.9999998 14.476655,1.3335029 13.992417,0.86148717 14.661618,0.7642466 14.960893,0.1578476 15.260169,0.76424666 15.92937,0.86148718 15.445132,1.3335029 Z"
     class="error"
     id="tofix" />
</svg>
